KingthingsW
16x8
320x216
or 20x27

HarringtonW/Y
16x8
272x168
or 17x21


Carbon
272x176
or 17x22

Book
320x200
or 20x25

CalibriW/Y
224x152
or 14x19

VrindaW
160x144
or 10x18

BArialW
192x136
or 12x17

Consolas
112x120
or 7x15

